﻿  TestMoney.cpp
  TemaSiemens.vcxproj -> C:\Users\Mihai\Desktop\SpringSchool1\Tema4 Siemens\Debug\TemaSiemens.exe
  TemaSiemens.vcxproj -> C:\Users\Mihai\Desktop\SpringSchool1\Tema4 Siemens\Debug\TemaSiemens.pdb (Full PDB)
