^C:\CODE\TEMASIEMENS\TEMASIEMENS\DEBUG\MONEY.OBJ|C:\CODE\TEMASIEMENS\TEMASIEMENS\DEBUG\TESTMONEY.OBJ
/OUT:"C:\CODE\TEMASIEMENS\DEBUG\TEMASIEMENS.EXE" /INCREMENTAL /NOLOGO KERNEL32.LIB USER32.LIB GDI32.LIB WINSPOOL.LIB COMDLG32.LIB ADVAPI32.LIB SHELL32.LIB OLE32.LIB OLEAUT32.LIB UUID.LIB ODBC32.LIB ODBCCP32.LIB /MANIFEST /MANIFESTUAC:"level='asInvoker' uiAccess='false'" /manifest:embed /DEBUG /PDB:"C:\CODE\TEMASIEMENS\DEBUG\TEMASIEMENS.PDB" /SUBSYSTEM:CONSOLE /TLBID:1 /DYNAMICBASE /NXCOMPAT /IMPLIB:"C:\CODE\TEMASIEMENS\DEBUG\TEMASIEMENS.LIB" /MACHINE:X86 DEBUG\MONEY.OBJDEBUG\TESTMONEY.OBJ
^C:\USERS\MIHAI\DESKTOP\SPRINGSCHOOL1\TEMA4 SIEMENS\TEMASIEMENS\DEBUG\CREDITCARD.OBJ|C:\USERS\MIHAI\DESKTOP\SPRINGSCHOOL1\TEMA4 SIEMENS\TEMASIEMENS\DEBUG\MONEY.OBJ|C:\USERS\MIHAI\DESKTOP\SPRINGSCHOOL1\TEMA4 SIEMENS\TEMASIEMENS\DEBUG\TESTMONEY.OBJ
/OUT:"C:\USERS\MIHAI\DESKTOP\SPRINGSCHOOL1\TEMA4 SIEMENS\DEBUG\TEMASIEMENS.EXE" /INCREMENTAL /NOLOGO KERNEL32.LIB USER32.LIB GDI32.LIB WINSPOOL.LIB COMDLG32.LIB ADVAPI32.LIB SHELL32.LIB OLE32.LIB OLEAUT32.LIB UUID.LIB ODBC32.LIB ODBCCP32.LIB /MANIFEST /MANIFESTUAC:"level='asInvoker' uiAccess='false'" /manifest:embed /DEBUG /PDB:"C:\USERS\MIHAI\DESKTOP\SPRINGSCHOOL1\TEMA4 SIEMENS\DEBUG\TEMASIEMENS.PDB" /SUBSYSTEM:CONSOLE /TLBID:1 /DYNAMICBASE /NXCOMPAT /IMPLIB:"C:\USERS\MIHAI\DESKTOP\SPRINGSCHOOL1\TEMA4 SIEMENS\DEBUG\TEMASIEMENS.LIB" /MACHINE:X86 DEBUG\CREDITCARD.OBJDEBUG\MONEY.OBJDEBUG\TESTMONEY.OBJ
